Data Preparation
…
Exercise 3 

Using the dim() function, we found out that the data has 96 columns, out of these which column has the highest missing values when you run the above function?

Might you know why it has that high count of missing values?

Another way of skimming through missing data is by use of naniar package. Naniar provides inbuilt functions that summarises, visualises and manipulate missing data with minimal deviations. After installing the package, load the library naniar in your R-Workspace. We’ll use Then use the functions miss_var_summary() and gg_miss_var() to view and visualise count of missing data per column, respectively.

library(naniar)

# Table of count of missing per column
miss_var_summary(data)

# A tibble: 96 × 3
   variable                     n_miss pct_miss
   <chr>                         <int>    <dbl>
 1 pi_write_languages_th          7347     98.8
 2 cocoa_fg_benefits              6615     89.0
 3 fs_experience_months           6386     85.9
 4 difficulty_food_satisfaction   6386     85.9
 5 oilpalm_nr_farms               6089     81.9
 6 pi_write_languages_which       4969     66.8
 7 cocoa_fg_yn                    3963     53.3
 8 cocoa_nr_farms                 3963     53.3
 9 f_services_access_type         3642     49.0
10 f_inputs_source                3642     49.0
# … with 86 more rows
…
